Construct proliferation
…
## [1] 0

# all %>% group_by(total_hits, DOI) %>% summarise(hits_by_year = sum(usage_count, na.rm = T)) %>% filter(hits_by_year < total_hits) %>% select(DOI, everything()) %>% mutate(diff = hits_by_year - total_hits) %>%  View()
all %>% group_by(total_hits, DOI) %>% summarise(hits_by_year = sum(Hits, na.rm = T)) %>% filter(hits_by_year == total_hits) %>% nrow()

## `summarise()` has grouped output by 'total_hits'. You can override using the
## `.groups` argument.

## [1] 31118

all %>% group_by(DOI) %>% summarise(hits_by_year = sum(Hits, na.rm = T)) %>% filter(hits_by_year == 0)

## # A tibble: 27 × 2
##    DOI                hits_by_year
##    <chr>                     <dbl>
##  1 10.1037/t00747-000            0
##  2 10.1037/t00875-000            0
##  3 10.1037/t00878-000            0
##  4 10.1037/t00879-000            0
##  5 10.1037/t02477-000            0
##  6 10.1037/t02488-000            0
##  7 10.1037/t04670-000            0
##  8 10.1037/t04771-000            0
##  9 10.1037/t04776-000            0
## 10 10.1037/t04779-000            0
## # ℹ 17 more rows
…
